Negara,TFR,AKB,AKI,AHH
Brunei Darussalam,1.8,8.8,59.7,77.7
Kamboja,2.6,27,161,68.3
Indonesia,2.4,22.2,126,70.8
Laos,2.9,57,197,68
Malaysia,2,6.9,23.8,74.8
Myanmar,2.2,44.8,236,64.4
Filipina,2.9,23,114,70.4
Singapura,1.2,1.7,7.1,82.9
Thailand,1.5,6.2,24.6,74.6
Vietnam,2.1,14.7,54,73.3
